<svg xmlns="http://www.w3.org/2000/svg" width="400" height="300" viewBox="0 0 400 300">
  <g>
    <g fill="#0065bd">
      <circle cx="58.2" cy="32.9" r="7.2"/>
      <circle cx="34.3" cy="47.3" r="7.2"/>
      <circle cx="46.3" cy="83.1" r="7.2"/>
      <circle cx="75" cy="66.4" r="7.2"/>
      <circle cx="84.5" cy="44.9" r="7.2"/>
      <circle cx="79.7" cy="99.8" r="7.2"/>
      <circle cx="27.2" cy="83.1" r="7.2"/>
      <circle cx="55.8" cy="59.2" r="7.2"/>
      <circle cx="98.9" cy="78.3" r="7.2"/>
    </g>
    <g fill="#a2ad00">
      <circle cx="69.3" cy="155.6" r="7.2"/>
      <circle cx="50.2" cy="174.7" r="7.2"/>
      <circle cx="83.7" cy="181.9" r="7.2"/>
      <circle cx="98" cy="162.8" r="7.2"/>
      <circle cx="43.1" cy="153.2" r="7.2"/>
      <circle cx="67" cy="193.8" r="7.2"/>
      <circle cx="59.8" cy="136.5" r="7.2"/>
      <circle cx="93.2" cy="141.3" r="7.2"/>
    </g>
    <g fill="#e37222">
      <circle cx="226" cy="56.4" r="7.2"/>
      <circle cx="199.7" cy="42.1" r="7.2"/>
      <circle cx="199.7" cy="42.1" r="7.2"/>
      <circle cx="180.6" cy="63.6" r="7.2"/>
      <circle cx="204.5" cy="80.3" r="7.2"/>
      <circle cx="226" cy="75.5" r="7.2"/>
      <circle cx="178.2" cy="94.7" r="7.2"/>
      <circle cx="175.8" cy="42.1" r="7.2"/>
      <circle cx="154.3" cy="75.5" r="7.2"/>
      <circle cx="221.2" cy="30.1" r="7.2"/>
      <circle cx="206.3" cy="104.8" r="7.2"/>
      <circle cx="197.3" cy="23" r="7.2"/>
      <circle cx="149.5" cy="49.3" r="7.2"/>
    </g>
  </g>
  <g fill="none" stroke-linecap="round">
    <g>
      <line x1="48.7" y1="52" x2="77.4" y2="80.7" stroke="#fff" stroke-width="4"/>
      <line x1="77.4" y1="52" x2="48.7" y2="80.7" stroke="#fff" stroke-width="4"/>
      <line x1="48.7" y1="52" x2="77.4" y2="80.7" stroke="#0065bd" stroke-width="2"/>
      <line x1="77.4" y1="52" x2="48.7" y2="80.7" stroke="#0065bd" stroke-width="2"/>
    </g>
    <g>
      <line x1="57.4" y1="148.4" x2="86.1" y2="177.1" stroke="#fff" stroke-width="4"/>
      <line x1="86.1" y1="148.4" x2="57.4" y2="177.1" stroke="#fff" stroke-width="4"/>
      <line x1="57.4" y1="148.4" x2="86.1" y2="177.1" stroke="#a2ad00" stroke-width="2"/>
      <line x1="86.1" y1="148.4" x2="57.4" y2="177.1" stroke="#a2ad00" stroke-width="2"/>
    </g>
    <g>
      <line x1="180.6" y1="46.9" x2="209.3" y2="75.5" stroke="#fff" stroke-width="4"/>
      <line x1="209.3" y1="46.9" x2="180.6" y2="75.5" stroke="#fff" stroke-width="4"/>
      <line x1="180.6" y1="46.9" x2="209.3" y2="75.5" stroke="#e37222" stroke-width="2"/>
      <line x1="209.3" y1="46.9" x2="180.6" y2="75.5" stroke="#e37222" stroke-width="2"/>
    </g>
  </g>
  <g>
    <g fill-opacity="0.25">
      <circle cx="296.6" cy="134.3" r="47.5" fill="#e37222"/>
      <circle cx="161.0" cy="223.9" r="47.5" fill="#a2ad00"/>
      <circle cx="334.9" cy="217.0" r="47.5" fill="#a2ad00"/>
      <g fill="#0065bd">
        <circle cx="199.8" cy="216.9" r="47.5"/>
        <circle cx="234.6" cy="197.4" r="47.5"/>
        <circle cx="236.8" cy="228.7" r="47.5"/>
        <circle cx="272.2" cy="202.4" r="47.5"/>
        <circle cx="274.9" cy="236.9" r="47.5"/>
        <circle cx="303.3" cy="208.6" r="47.5"/>
      </g>
    </g>
    <g>
      <circle cx="296.6" cy="134.3" r="7.2" fill="#e37222"/>
      <circle cx="161.0" cy="223.9" r="7.2" fill="#a2ad00"/>
      <circle cx="334.9" cy="217.0" r="7.2" fill="#a2ad00"/>
      <g fill="#0065bd">
        <circle cx="199.8" cy="216.9" r="7.2"/>
        <circle cx="234.6" cy="197.4" r="7.2"/>
        <circle cx="236.8" cy="228.7" r="7.2"/>
        <circle cx="272.2" cy="202.4" r="7.2"/>
        <circle cx="274.9" cy="236.9" r="7.2"/>
        <circle cx="303.3" cy="208.6" r="7.2"/>
      </g>
    </g>
  </g>
</svg>
